{
  "openapi": "3.1.0",
  "info": {
    "title": "Hello API",
    "version": "1.0.0"
  },
"servers": [ { "url": "http://localhost:1001" } ],
"paths": {
    "/hello": {
      "get": {
        "summary": "Say hello",
        "operationld": "hello",
        "parameters": [],
        "responses": {
          "200": {
            "description": "A string response",
            "content": {
              "text/plain": {}
